{"statusCode":"OK","message":"","data":{"pageNumber":1,"pageSize":5,"totalCount":131,"totalPage":27,"items":[{"id":4185,"title":"[채용전환형/월 500만원] 모두닥 풀스택 엔지니어(인턴)","jobLevel":"IRRELEVANT","jobLevels":["BEGINNER"],"startedAt":"2026-05-05","endedAt":"2026-05-31","companyId":1432,"companyName":"모두닥 주식회사","addressRegion":"GANGNAM","companyRepresentativeImage":"https://cdn.rallit.com/image/2025-08-08/vAlYWyFqF35FWfgedSNHw.png","isBookmarked":false,"status":{"code":"HIRING","name":"모집 중"},"url":"https://www.rallit.com/positions/4185","joinReward":"0","jobSkillKeywords":["Python","JavaScript","Django","Next.js","PostgreSQL","Elasticsearch","AWS","claude"],"partnerLogo":"","isPartner":false},{"id":4186,"title":"[채용전환형/월 400만원] 모두닥 그로스 마케터 (인턴)","jobLevel":"IRRELEVANT","jobLevels":["BEGINNER"],"startedAt":"2026-05-05","endedAt":"2026-05-31","companyId":1432,"companyName":"모두닥 주식회사","addressRegion":"GANGNAM","companyRepresentativeImage":"https://cdn.rallit.com/image/2025-08-08/vAlYWyFqF35FWfgedSNHw.png","isBookmarked":false,"status":{"code":"HIRING","name":"모집 중"},"url":"https://www.rallit.com/positions/4186","joinReward":"0","jobSkillKeywords":["유튜브","instagram","Google Sheets","Google Ads","Google Analytics"],"partnerLogo":"","isPartner":false},{"id":4175,"title":"영화 포스터 및 예고편 제작자","jobLevel":"IRRELEVANT","jobLevels":["IRRELEVANT"],"startedAt":"1970-01-01","endedAt":"9999-12-31","companyId":103,"companyName":"키노라이츠","addressRegion":"GANGNAM","companyRepresentativeImage":"https://cdn.rallit.com/image/2026-04-08/GoICum6I0vwebWtIDZWUE.jpg","isBookmarked":false,"status":{"code":"HIRING","name":"모집 중"},"url":"https://www.rallit.com/positions/4175","joinReward":"0","jobSkillKeywords":["Premiere Pro","Figma"],"partnerLogo":"","isPartner":false},{"id":4203,"title":"콘텐츠 마케팅 PD (3년 이상)","jobLevel":"IRRELEVANT","jobLevels":["IRRELEVANT"],"startedAt":"1970-01-01","endedAt":"9999-12-31","companyId":103,"companyName":"키노라이츠","addressRegion":"GANGNAM","companyRepresentativeImage":"https://cdn.rallit.com/image/2026-04-08/GoICum6I0vwebWtIDZWUE.jpg","isBookmarked":false,"status":{"code":"HIRING","name":"모집 중"},"url":"https://www.rallit.com/positions/4203","joinReward":"0","jobSkillKeywords":["instagram","유튜브","Photoshop","Figma"],"partnerLogo":"","isPartner":false},{"id":4093,"title":"해외 콘텐츠 MD (인턴)","jobLevel":"IRRELEVANT","jobLevels":["IRRELEVANT","INTERN"],"startedAt":"1970-01-01","endedAt":"9999-12-31","companyId":7,"companyName":"인프랩 (인프런)","addressRegion":"PANGYO","companyRepresentativeImage":"https://cdn.rallit.com/image/2022-01-06/zWVCtXZfCDVujmzobblNq.png","isBookmarked":false,"status":{"code":"HIRING","name":"모집 중"},"url":"https://www.rallit.com/positions/4093","joinReward":"0","jobSkillKeywords":["커뮤니케이션","영어"],"partnerLogo":"","isPartner":false}]},"errorCode":null}